{
  "map": {
    "node_modules/bootstrap/fonts/glyphicons-halflings-regular.eot": "fonts/glyphicons-halflings-regular.eot",
    "node_modules/bootstrap/fonts/glyphicons-halflings-regular.svg": "fonts/glyphicons-halflings-regular.svg",
    "node_modules/bootstrap/fonts/glyphicons-halflings-regular.ttf": "fonts/glyphicons-halflings-regular.ttf",
    "node_modules/bootstrap/fonts/glyphicons-halflings-regular.woff": "fonts/glyphicons-halflings-regular.woff",
    "node_modules/bootstrap/dist/fonts/glyphicons-halflings-regular.woff2": "fonts/glyphicons-halflings-regular.woff2"
  },
  "extensions": [
  	"eot",
  	"svg",
  	"ttf",
  	"woff",
  	"woff2"
  ]
}